Data frames with tidyr
…
library(readr)
gap_wide <- read_csv('https://swcarpentry.github.io/r-novice-gapminder/data/gapminder_wide.csv')

Rows: 142 Columns: 38
── Column specification ────────────────────────────────────────────────────────
Delimiter: ","
chr  (2): continent, country
dbl (36): gdpPercap_1952, gdpPercap_1957, gdpPercap_1962, gdpPercap_1967, gd...

ℹ Use `spec()` to retrieve the full column specification for this data.
ℹ Specify the column types or set `show_col_types = FALSE` to quiet this message.

gap_wide

# A tibble: 142 × 38
   continent country     gdpPe…¹ gdpPe…² gdpPe…³ gdpPe…⁴ gdpPe…⁵ gdpPe…⁶ gdpPe…⁷
   <chr>     <chr>         <dbl>   <dbl>   <dbl>   <dbl>   <dbl>   <dbl>   <dbl>
 1 Africa    Algeria       2449.   3014.   2551.   3247.   4183.   4910.   5745.
 2 Africa    Angola        3521.   3828.   4269.   5523.   5473.   3009.   2757.
 3 Africa    Benin         1063.    960.    949.   1036.   1086.   1029.   1278.
 4 Africa    Botswana       851.    918.    984.   1215.   2264.   3215.   4551.
 5 Africa    Burkina Fa…    543.    617.    723.    795.    855.    743.    807.
 6 Africa    Burundi        339.    380.    355.    413.    464.    556.    560.
 7 Africa    Cameroon      1173.   1313.   1400.   1508.   1684.   1783.   2368.
 8 Africa    Central Af…   1071.   1191.   1193.   1136.   1070.   1109.    957.
 9 Africa    Chad          1179.   1308.   1390.   1197.   1104.   1134.    798.
10 Africa    Comoros       1103.   1211.   1407.   1876.   1938.   1173.   1267.
# … with 132 more rows, 29 more variables: gdpPercap_1987 <dbl>,
#   gdpPercap_1992 <dbl>, gdpPercap_1997 <dbl>, gdpPercap_2002 <dbl>,
#   gdpPercap_2007 <dbl>, lifeExp_1952 <dbl>, lifeExp_1957 <dbl>,
#   lifeExp_1962 <dbl>, lifeExp_1967 <dbl>, lifeExp_1972 <dbl>,
#   lifeExp_1977 <dbl>, lifeExp_1982 <dbl>, lifeExp_1987 <dbl>,
#   lifeExp_1992 <dbl>, lifeExp_1997 <dbl>, lifeExp_2002 <dbl>,
#   lifeExp_2007 <dbl>, pop_1952 <dbl>, pop_1957 <dbl>, pop_1962 <dbl>, …

The gap_long data set is formatted such that there is one row per data point.

gap_long <- gap_wide %>%
  pivot_longer(
    cols = c(starts_with('pop'), 
             starts_with('lifeExp'),
             starts_with('gdpPercap')),
    names_to = "obstype_year", 
    values_to = "obs_values") %>%
    
    separate(obstype_year, into = c('obstype', 'year'), sep = '_')
gap_long

# A tibble: 5,112 × 5
   continent country obstype year  obs_values
   <chr>     <chr>   <chr>   <chr>      <dbl>
 1 Africa    Algeria pop     1952     9279525
 2 Africa    Algeria pop     1957    10270856
 3 Africa    Algeria pop     1962    11000948
 4 Africa    Algeria pop     1967    12760499
 5 Africa    Algeria pop     1972    14760787
 6 Africa    Algeria pop     1977    17152804
 7 Africa    Algeria pop     1982    20033753
 8 Africa    Algeria pop     1987    23254956
 9 Africa    Algeria pop     1992    26298373
10 Africa    Algeria pop     1997    29072015
# … with 5,102 more rows

Both formats cover the extreme ends of the spectrum of how we could format this in a tidy way. The intermediate format provided by data(gapminder) is probably more useful in most situations.

gapminder

# A tibble: 1,704 × 6
   country     continent  year lifeExp      pop gdpPercap
   <fct>       <fct>     <int>   <dbl>    <int>     <dbl>
 1 Afghanistan Asia       1952    28.8  8425333      779.
 2 Afghanistan Asia       1957    30.3  9240934      821.
 3 Afghanistan Asia       1962    32.0 10267083      853.
 4 Afghanistan Asia       1967    34.0 11537966      836.
 5 Afghanistan Asia       1972    36.1 13079460      740.
 6 Afghanistan Asia       1977    38.4 14880372      786.
 7 Afghanistan Asia       1982    39.9 12881816      978.
 8 Afghanistan Asia       1987    40.8 13867957      852.
 9 Afghanistan Asia       1992    41.7 16317921      649.
10 Afghanistan Asia       1997    41.8 22227415      635.
# … with 1,694 more rows
…
